Project 2: Data Mining, Classification, Prediction
…
Mining, Classification, Prediction

Sara Blanco, seb4296

Introduction

Throughout this project I used the candy_rankings dataset found in the fivethirtyeight package. I found this data by exploring the preloaded R datasets and was immediately intrigued by the thought of classifying candy! Halloween is my favorite holday, so I was very excited to be able to apply this data to the concepts weve explored throughout this course.

This dataset was initially used to rank Halloween candy and contains the name (competitorname), types and features of the candy (including chocolate, fruity, caramel, peanutyalmondy, nougat, crispedricewafer, hard, bar, and pluribus), and the percentages (sugarpercent, pricepercent, winpercent) for each candy. The variables measure whether or not each candy contains features (chocolate, nougat, etc.) and also the percentile of sugar and price along with the overall win percentage as determined by a matchup study. There are 85 observations and the values of True and False for each binary variable are listed below.

library(tidyverse)
library(fivethirtyeight)
candy_rankings

## # A tibble: 85 x 13
##    competitorname chocolate fruity caramel peanutyalmondy nougat
##    <chr>          <lgl>     <lgl>  <lgl>   <lgl>          <lgl> 
##  1 100 Grand      TRUE      FALSE  TRUE    FALSE          FALSE 
##  2 3 Musketeers   TRUE      FALSE  FALSE   FALSE          TRUE  
##  3 One dime       FALSE     FALSE  FALSE   FALSE          FALSE 
##  4 One quarter    FALSE     FALSE  FALSE   FALSE          FALSE 
##  5 Air Heads      FALSE     TRUE   FALSE   FALSE          FALSE 
##  6 Almond Joy     TRUE      FALSE  FALSE   TRUE           FALSE 
##  7 Baby Ruth      TRUE      FALSE  TRUE    TRUE           TRUE  
##  8 Boston Baked  FALSE     FALSE  FALSE   TRUE           FALSE 
##  9 Candy Corn     FALSE     FALSE  FALSE   FALSE          FALSE 
## 10 Caramel Apple FALSE     TRUE   TRUE    FALSE          FALSE 
## #  with 75 more rows, and 7 more variables: crispedricewafer <lgl>,
## #   hard <lgl>, bar <lgl>, pluribus <lgl>, sugarpercent <dbl>,
## #   pricepercent <dbl>, winpercent <dbl>
…
Based on the plot of variance, I chose to keep the first two Principal Components. PC1 appears to be a general factor to assess the general goodness. All of the events within this component are positive, so a high score here means the candy is generally well liked, whereas a low score means the candy does poorer in each category. PC2 looks like it focuses on sugarpercent vs.winpercent. A higher score here means more sugar and a lower win percentage whereas a lower score may mean a higher win percentage and lower sugar percent. These two PCs account for 80% of the total variance in this dataset as seen in the plot. I chose to incorporate a biplot as a visual to show the candies included in our dataset and where they fall. You can see that names of candies like Root Beer Barrels and Sour Patch Kids which fall lower on Dimension 1 whereas the chocolate candies like Kit Kat and Twix are higher on this measure.

Linear Classifier

y_hat <- sample(c("TRUE", "FALSE"), size = length(candy_rankings$chocolate), 
    replace = T)
candy_rankings %>% select(competitorname, chocolate, sugarpercent, 
    pricepercent, winpercent) %>% mutate(prediction = y_hat)

## # A tibble: 85 x 6
##    competitorname     chocolate sugarpercent pricepercent winpercent prediction
##    <chr>              <lgl>            <dbl>        <dbl>      <dbl> <chr>     
##  1 100 Grand          TRUE             0.732        0.860       67.0 FALSE     
##  2 3 Musketeers       TRUE             0.604        0.511       67.6 FALSE     
##  3 One dime           FALSE            0.011        0.116       32.3 TRUE      
##  4 One quarter        FALSE            0.011        0.511       46.1 FALSE     
##  5 Air Heads          FALSE            0.906        0.511       52.3 TRUE      
##  6 Almond Joy         TRUE             0.465        0.767       50.3 TRUE      
##  7 Baby Ruth          TRUE             0.604        0.767       56.9 FALSE     
##  8 Boston Baked Beans FALSE            0.313        0.511       23.4 TRUE      
##  9 Candy Corn         FALSE            0.906        0.325       38.0 FALSE     
## 10 Caramel Apple Pops FALSE            0.604        0.325       34.5 FALSE     
## #  with 75 more rows
…
